{
  "type": "service_account",
  "project_id": "api-5795331507417423649-623454",
  "private_key_id": "a1e82e47c7b73db17d40f593de62460972d926cf",
  "private_key": "-----BEGIN PRIVATE KEY-----\nMIIEvgIBADANBgkqhkiG9w0BAQEFAASCBKgwggSkAgEAAoIBAQCsDLz6kh1qxMzd\njojBxFPFFeVzgxc4gaxIgRztFyXtREAELZx5ZoG7fyxVXgyLfrEmqG2lutnwcazI\njsgXDVvUZWr48A2qAQfkQ41+zNgIvFFgEExD0FDiFoX6XusPs0JyJ6YGvB5uaH3W\nfiVkHxsk6wcelfQLshvmCvOBObXaYdVYeouYJSzZL1tRjOUITVPqzMfmT1mIK9sP\njxvnMTbnvcPqgNuLUyBpidy7k5cv4PTNO9JuCR7fAwBxPXv1cpHqF5RV9b3mjy8q\nIpzCDqk2KpEkK1NRtfTqcSxqyAOOJlufFEXcdllKOGMrHerNdNwOqIKA247id0pB\nWkz0Bv27AgMBAAECggEAKk3lh802u4KRhybdfJucJ3lXVnxU0NmdtaQ9qxSGiF1A\nSma2s2kfnC1Mht8dwY0Q3RsL/vS/Uu54mEX3cCeiPUsErxpDmdowCRINMDEJK7i2\nX6MSRZhq0vTL08DUFqOywmP6YGyQJQC/dGbHJeO6Jm097mjbvaZ5Uqq9rjg0/XGq\nU+Oe3sUIxnZwFrz+EghNHcvMA8sXz2aSdULrU6oV7RlcvF9rOkUlumFn6EP/Hvyw\nOYvJfVX5GgLFmAM4QNsaqAOpribR8j52hYt3COssnV5qb0DpxaflzXbstOh8Q0TF\n4cfSE2FV0FJR2W8OuPX5d5gXMavT2WBbUs8FeTZnRQKBgQDkQCD5PpG4vKXzbCs2\nfn4nu5MOZmV77QnT8k0FDtb3sGpZTv/1H4LOuP1tEGkgprUM1Vtbwk6jog1733yb\nSv/sHrbS6QcVpt47v1wz6W8h4Lqk6cYzB3lp7XnSvMiLrpaWX8GkgP6wb3AfmjIN\nRztBOEqhzSPPbwcpdgNN6842HQKBgQDA93dOhmifk5PTkhadMrDV1z+bBTS4ZnzP\n97RyCgfJn2iMQDvzrudUmK1hPboBcCVJPpAR/06TGYC4Uot0pUdz2pucfB6bxuq9\ntJEydAsoa5cV7U8hkVdHvlrJuHbFkbfVWOeK/n6C7nabBjAJ+VOAK81pNX4ixNgZ\n0Uy2mkpbtwKBgQCsItT7Q73ANb1tzEj2qwTXUDYCaSTmBgkgZ57ATsW+PLSnr9WG\n9oG/B3JQm0y9TBxElm90zyBhdah3oD8oGrLRTwSQIR+vq430P0f4+nZOdV4tWwSX\nnW5qfacfUDJqbXux4nt2ZbYuN4y2uKJAs1SzxhE63yu/l7suAItTa5+z3QKBgCFQ\n2H1rQVcD0Mr/dv4PCW7yKd4m6PJJZ5U0bCggSTXrWs6ULIWnFfOKJK0cTif/Z8Cc\nl50z2ioVhh7MyZ0LCCodfS5oU5SLpG26ZjMyy9ZftQcpILdn84zEdcJMId18iiPA\npMFfrRIH/9xGFjcyn9MKPP3EKZHxMGpMs5T3UI1DAoGBAKOW9fMWZESDvoDVXpvE\nYvrPbIKx735ejGo189dDL9GMuV9U2ov5LDkuaWDSWumssrvN3guljhbJGiTzIdgY\nqZiK8nWS2wDdg3jr8UHnu94drHLbh7fAJicpfcWbXY/JtmeEu9C10KUHKqbg74sH\nxfyahXgCZfx+45dQ4OT7CE1v\n-----END PRIVATE KEY-----\n",
  "client_email": "testluisalabs@api-5795331507417423649-623454.iam.gserviceaccount.com",
  "client_id": "108390238150053871239",
  "auth_uri": "https://accounts.google.com/o/oauth2/auth",
  "token_uri": "https://oauth2.googleapis.com/token",
  "auth_provider_x509_cert_url": "https://www.googleapis.com/oauth2/v1/certs",
  "client_x509_cert_url": "https://www.googleapis.com/robot/v1/metadata/x509/testluisalabs%40api-5795331507417423649-623454.iam.gserviceaccount.com"
}
